%YAML 1.1
%TAG !u! tag:unity3d.com,2011:
--- !u!129 &1
PlayerSettings:
  m_ObjectHideFlags: 0
  serializedVersion: 10
  productGUID: 5c596556decb141888be121e4494e18f
  AndroidProfiler: 0
  defaultScreenOrientation: 2
  targetDevice: 2
  useOnDemandResources: 0
  accelerometerFrequency: 60
  companyName: Unity Technologies
  productName: Unity Remote 4
  defaultCursor: {fileID: 0}
  cursorHotspot: {x: 0, y: 0}
  m_SplashScreenBackgroundColor: {r: 0.13333334, g: 0.17254902, b: 0.21176471, a: 1}
  m_ShowUnitySplashScreen: 1
  m_ShowUnitySplashLogo: 1
  m_SplashScreenOverlayOpacity: 1
  m_SplashScreenAnimation: 1
  m_SplashScreenLogoStyle: 1
  m_SplashScreenDrawMode: 0
  m_SplashScreenBackgroundAnimationZoom: 1
  m_SplashScreenLogoAnimationZoom: 1
  m_SplashScreenBackgroundLandscapeAspect: 1
  m_SplashScreenBackgroundPortraitAspect: 1
  m_SplashScreenBackgroundLandscapeUvs:
    serializedVersion: 2
    x: 0
    y: 0
    width: 1
    height: 1
  m_SplashScreenBackgroundPortraitUvs:
    serializedVersion: 2
    x: 0
    y: 0
    width: 1
    height: 1
  m_SplashScreenLogos: []
  m_SplashScreenBackgroundLandscape: {fileID: 0}
  m_SplashScreenBackgroundPortrait: {fileID: 0}
  m_VirtualRealitySplashScreen: {fileID: 0}
  m_HolographicTrackingLossScreen: {fileID: 0}
  defaultScreenWidth: 1024
  defaultScreenHeight: 768
  defaultScreenWidthWeb: 960
  defaultScreenHeightWeb: 600
  m_StereoRenderingPath: 0
  m_ActiveColorSpace: 0
  m_MTRendering: 1
  m_MobileMTRendering: 0
  m_StackTraceTypes: 010000000100000001000000010000000100000001000000
  iosShowActivityIndicatorOnLoading: -1
  androidShowActivityIndicatorOnLoading: -1
  tizenShowActivityIndicatorOnLoading: -1
  iosAppInBackgroundBehavior: 1
  displayResolutionDialog: 1
  iosAllowHTTPDownload: 1
  allowedAutorotateToPortrait: 1
  allowedAutorotateToPortraitUpsideDown: 1
  allowedAutorotateToLandscapeRight: 1
  allowedAutorotateToLandscapeLeft: 1
  useOSAutorotation: 1
  use32BitDisplayBuffer: 1
  disableDepthAndStencilBuffers: 0
  defaultIsFullScreen: 0
  defaultIsNativeResolution: 1
  runInBackground: 1
  captureSingleScreen: 0
  muteOtherAudioSources: 0
  Prepare IOS For Recording: 0
  submitAnalytics: 1
  usePlayerLog: 1
  bakeCollisionMeshes: 0
  forceSingleInstance: 0
  resizableWindow: 0
  useMacAppStoreValidation: 0
  gpuSkinning: 1
  graphicsJobs: 0
  xboxPIXTextureCapture: 0
  xboxEnableAvatar: 0
  xboxEnableKinect: 0
  xboxEnableKinectAutoTracking: 0
  xboxEnableFitness: 0
  visibleInBackground: 0
  allowFullscreenSwitch: 1
  graphicsJobMode: 0
  macFullscreenMode: 2
  d3d9FullscreenMode: 1
  d3d11FullscreenMode: 1
  xboxSpeechDB: 0
  xboxEnableHeadOrientation: 0
  xboxEnableGuest: 0
  xboxEnablePIXSampling: 0
  n3dsDisableStereoscopicView: 0
  n3dsEnableSharedListOpt: 1
  n3dsEnableVSync: 0
  uiUse16BitDepthBuffer: 0
  ignoreAlphaClear: 0
  xboxOneResolution: 0
  xboxOneMonoLoggingLevel: 0
  xboxOneLoggingLevel: 1
  videoMemoryForVertexBuffers: 0
  psp2PowerMode: 0
  psp2AcquireBGM: 1
  wiiUTVResolution: 0
  wiiUGamePadMSAA: 1
  wiiUSupportsNunchuk: 0
  wiiUSupportsClassicController: 0
  wiiUSupportsBalanceBoard: 0
  wiiUSupportsMotionPlus: 0
  wiiUSupportsProController: 0
  wiiUAllowScreenCapture: 1
  wiiUControllerCount: 0
  m_SupportedAspectRatios:
    4:3: 1
    5:4: 1
    16:10: 1
    16:9: 1
    Others: 1
  bundleIdentifier: com.unity3d.remote
  bundleVersion: 1.0
  preloadedAssets: []
  metroInputSource: 1
  m_HolographicPauseOnTrackingLoss: 1
  xboxOneDisableKinectGpuReservation: 0
  protectGraphicsMemory: 0
  AndroidBundleVersionCode: 1
  AndroidMinSdkVersion: 9
  AndroidPreferredInstallLocation: 1
  aotOptions: 
  apiCompatibilityLevel: 2
  stripEngineCode: 1
  iPhoneStrippingLevel: 0
  iPhoneScriptCallOptimization: 0
  iPhoneBuildNumber: 0
  ForceInternetPermission: 0
  ForceSDCardPermission: 0
  CreateWallpaper: 0
  APKExpansionFiles: 0
  preloadShaders: 0
  StripUnusedMeshComponents: 0
  VertexChannelCompressionMask:
    serializedVersion: 2
    m_Bits: 238
  iPhoneSdkVersion: 988
  iOSTargetOSVersionString: 
  tvOSSdkVersion: 0
  tvOSRequireExtendedGameController: 0
  tvOSTargetOSVersionString: 
  uIPrerenderedIcon: 0
  uIRequiresPersistentWiFi: 0
  uIRequiresFullScreen: 1
  uIStatusBarHidden: 1
  uIExitOnSuspend: 1
  uIStatusBarStyle: 0
  iPhoneSplashScreen: {fileID: 0}
  iPhoneHighResSplashScreen: {fileID: 0}
  iPhoneTallHighResSplashScreen: {fileID: 0}
  iPhone47inSplashScreen: {fileID: 0}
  iPhone55inPortraitSplashScreen: {fileID: 0}
  iPhone55inLandscapeSplashScreen: {fileID: 0}
  iPadPortraitSplashScreen: {fileID: 0}
  iPadHighResPortraitSplashScreen: {fileID: 0}
  iPadLandscapeSplashScreen: {fileID: 0}
  iPadHighResLandscapeSplashScreen: {fileID: 0}
  appleTVSplashScreen: {fileID: 0}
  tvOSSmallIconLayers: []
  tvOSLargeIconLayers: []
  tvOSTopShelfImageLayers: []
  tvOSTopShelfImageWideLayers: []
  iOSLaunchScreenType: 0
  iOSLaunchScreenPortrait: {fileID: 0}
  iOSLaunchScreenLandscape: {fileID: 0}
  iOSLaunchScreenBackgroundColor:
    serializedVersion: 2
    rgba: 0
  iOSLaunchScreenFillPct: 100
  iOSLaunchScreenSize: 100
  iOSLaunchScreenCustomXibPath: 
  iOSLaunchScreeniPadType: 0
  iOSLaunchScreeniPadImage: {fileID: 0}
  iOSLaunchScreeniPadBackgroundColor:
    serializedVersion: 2
    rgba: 0
  iOSLaunchScreeniPadFillPct: 100
  iOSLaunchScreeniPadSize: 100
  iOSLaunchScreeniPadCustomXibPath: 
  iOSDeviceRequirements: []
  iOSURLSchemes: []
  iOSBackgroundModes: 0
  iOSMetalForceHardShadows: 0
  appleDeveloperTeamID: 
  iOSManualSigningProvisioningProfileID: 
  tvOSManualSigningProvisioningProfileID: 
  appleEnableAutomaticSigning: 0
  AndroidTargetDevice: 0
  AndroidSplashScreenScale: 0
  androidSplashScreen: {fileID: 0}
  AndroidKeystoreName: 
  AndroidKeyaliasName: 
  AndroidTVCompatibility: 1
  AndroidIsGame: 1
  androidEnableBanner: 1
  m_AndroidBanners:
  - width: 320
    height: 180
    banner: {fileID: 0}
  androidGamepadSupportLevel: 0
  resolutionDialogBanner: {fileID: 0}
  m_BuildTargetIcons:
  - m_BuildTarget: 
    m_Icons:
    - serializedVersion: 2
      m_Icon: {fileID: 2800000, guid: c379656594f91445898d48eb96df3e0f, type: 3}
      m_Width: 128
      m_Height: 128
  - m_BuildTarget: Android
    m_Icons:
    - serializedVersion: 2
      m_Icon: {fileID: 2800000, guid: c94506069dd2c484780fb8bbe4a4eb17, type: 3}
      m_Width: 144
      m_Height: 144
    - serializedVersion: 2
      m_Icon: {fileID: 2800000, guid: c815034ffc16f4a0e98e42b9304188bf, type: 3}
      m_Width: 96
      m_Height: 96
    - serializedVersion: 2
      m_Icon: {fileID: 2800000, guid: fdd4612c583e9480dac1f3782facd476, type: 3}
      m_Width: 72
      m_Height: 72
    - serializedVersion: 2
      m_Icon: {fileID: 2800000, guid: e6d951d4c4e37458f970b728b0e40808, type: 3}
      m_Width: 48
      m_Height: 48
    - serializedVersion: 2
      m_Icon: {fileID: 2800000, guid: 56c95f39c06654eae9f6f8c3c03943db, type: 3}
      m_Width: 36
      m_Height: 36
  - m_BuildTarget: iPhone
    m_Icons:
    - serializedVersion: 2
      m_Icon: {fileID: 2800000, guid: cb5a31c1dac864b5f90811c410e7e572, type: 3}
      m_Width: 152
      m_Height: 152
    - serializedVersion: 2
      m_Icon: {fileID: 2800000, guid: c94506069dd2c484780fb8bbe4a4eb17, type: 3}
      m_Width: 144
      m_Height: 144
    - serializedVersion: 2
      m_Icon: {fileID: 2800000, guid: 246bc47f24a854aaea5efe68ae683fc3, type: 3}
      m_Width: 120
      m_Height: 120
    - serializedVersion: 2
      m_Icon: {fileID: 0}
      m_Width: 114
      m_Height: 114
    - serializedVersion: 2
      m_Icon: {fileID: 2800000, guid: cafb14b415d7f4a828994e2c02e28938, type: 3}
      m_Width: 76
      m_Height: 76
    - serializedVersion: 2
      m_Icon: {fileID: 2800000, guid: fdd4612c583e9480dac1f3782facd476, type: 3}
      m_Width: 72
      m_Height: 72
    - serializedVersion: 2
      m_Icon: {fileID: 0}
      m_Width: 57
      m_Height: 57
  m_BuildTargetBatching:
  - m_BuildTarget: Standalone
    m_StaticBatching: 1
    m_DynamicBatching: 1
  m_BuildTargetGraphicsAPIs:
  - m_BuildTarget: WindowsStandaloneSupport
    m_APIs: 01000000
    m_Automatic: 0
  - m_BuildTarget: AndroidPlayer
    m_APIs: 08000000
    m_Automatic: 0
  m_BuildTargetVRSettings: []
  openGLRequireES31: 0
  openGLRequireES31AEP: 0
  webPlayerTemplate: APPLICATION:Default
  m_TemplateCustomTags: {}
  wiiUTitleID: 0005000011000000
  wiiUGroupID: 00010000
  wiiUCommonSaveSize: 4096
  wiiUAccountSaveSize: 2048
  wiiUOlvAccessKey: 0
  wiiUTinCode: 0
  wiiUJoinGameId: 0
  wiiUJoinGameModeMask: 0000000000000000
  wiiUCommonBossSize: 0
  wiiUAccountBossSize: 0
  wiiUAddOnUniqueIDs: []
  wiiUMainThreadStackSize: 3072
  wiiULoaderThreadStackSize: 1024
  wiiUSystemHeapSize: 128
  wiiUTVStartupScreen: {fileID: 0}
  wiiUGamePadStartupScreen: {fileID: 0}
  wiiUDrcBufferDisabled: 0
  wiiUProfilerLibPath: 
  actionOnDotNetUnhandledException: 1
  enableInternalProfiler: 0
  logObjCUncaughtExceptions: 1
  enableCrashReportAPI: 0
  cameraUsageDescription: 
  locationUsageDescription: 
  microphoneUsageDescription: 
  XboxTitleId: 
  XboxImageXexPath: 
  XboxSpaPath: 
  XboxGenerateSpa: 0
  XboxDeployKinectResources: 0
  XboxSplashScreen: {fileID: 0}
  xboxEnableSpeech: 0
  xboxAdditionalTitleMemorySize: 0
  xboxDeployKinectHeadOrientation: 0
  xboxDeployKinectHeadPosition: 0
  ps4NPAgeRating: 12
  ps4NPTitleSecret: 
  ps4NPTrophyPackPath: 
  ps4ParentalLevel: 1
  ps4ContentID: ED1633-NPXX51362_00-0000000000000000
  ps4Category: 0
  ps4MasterVersion: 01.00
  ps4AppVersion: 01.00
  ps4AppType: 0
  ps4ParamSfxPath: 
  ps4VideoOutPixelFormat: 0
  ps4VideoOutInitialWidth: 1920
  ps4VideoOutBaseModeInitialWidth: 1920
  ps4VideoOutReprojectionRate: 120
  ps4PronunciationXMLPath: 
  ps4PronunciationSIGPath: 
  ps4BackgroundImagePath: 
  ps4StartupImagePath: 
  ps4SaveDataImagePath: 
  ps4SdkOverride: 
  ps4BGMPath: 
  ps4ShareFilePath: 
  ps4ShareOverlayImagePath: 
  ps4PrivacyGuardImagePath: 
  ps4NPtitleDatPath: 
  ps4RemotePlayKeyAssignment: -1
  ps4RemotePlayKeyMappingDir: 
  ps4PlayTogetherPlayerCount: 0
  ps4EnterButtonAssignment: 1
  ps4ApplicationParam1: 0
  ps4ApplicationParam2: 0
  ps4ApplicationParam3: 0
  ps4ApplicationParam4: 0
  ps4DownloadDataSize: 0
  ps4GarlicHeapSize: 2048
  ps4ProGarlicHeapSize: 2560
  ps4Passcode: frAQBc8Wsa1xVPfvJcrgRYwTiizs2trQ
  ps4UseDebugIl2cppLibs: 0
  ps4pnSessions: 1
  ps4pnPresence: 1
  ps4pnFriends: 1
  ps4pnGameCustomData: 1
  playerPrefsSupport: 0
  restrictedAudioUsageRights: 0
  ps4UseResolutionFallback: 0
  ps4ReprojectionSupport: 0
  ps4UseAudio3dBackend: 0
  ps4SocialScreenEnabled: 0
  ps4ScriptOptimizationLevel: 3
  ps4Audio3dVirtualSpeakerCount: 14
  ps4attribCpuUsage: 0
  ps4PatchPkgPath: 
  ps4PatchLatestPkgPath: 
  ps4PatchChangeinfoPath: 
  ps4PatchDayOne: 0
  ps4attribUserManagement: 0
  ps4attribMoveSupport: 0
  ps4attrib3DSupport: 0
  ps4attribShareSupport: 0
  ps4attribExclusiveVR: 0
  ps4disableAutoHideSplash: 0
  ps4videoRecordingFeaturesUsed: 0
  ps4contentSearchFeaturesUsed: 0
  ps4attribEyeToEyeDistanceSettingVR: 0
  ps4IncludedModules: []
  monoEnv: 
  psp2Splashimage: {fileID: 0}
  psp2NPTrophyPackPath: 
  psp2NPSupportGBMorGJP: 0
  psp2NPAgeRating: 12
  psp2NPTitleDatPath: 
  psp2NPCommsID: 
  psp2NPCommunicationsID: 
  psp2NPCommsPassphrase: 
  psp2NPCommsSig: 
  psp2ParamSfxPath: 
  psp2ManualPath: 
  psp2LiveAreaGatePath: 
  psp2LiveAreaBackroundPath: 
  psp2LiveAreaPath: 
  psp2LiveAreaTrialPath: 
  psp2PatchChangeInfoPath: 
  psp2PatchOriginalPackage: 
  psp2PackagePassword: F69AzBlax3CF3EDNhm3soLBPh71Yexui
  psp2KeystoneFile: 
  psp2MemoryExpansionMode: 0
  psp2DRMType: 0
  psp2StorageType: 0
  psp2MediaCapacity: 0
  psp2DLCConfigPath: 
  psp2ThumbnailPath: 
  psp2BackgroundPath: 
  psp2SoundPath: 
  psp2TrophyCommId: 
  psp2TrophyPackagePath: 
  psp2PackagedResourcesPath: 
  psp2SaveDataQuota: 10240
  psp2ParentalLevel: 1
  psp2ShortTitle: Not Set
  psp2ContentID: IV0000-ABCD12345_00-0123456789ABCDEF
  psp2Category: 0
  psp2MasterVersion: 01.00
  psp2AppVersion: 01.00
  psp2TVBootMode: 0
  psp2EnterButtonAssignment: 2
  psp2TVDisableEmu: 0
  psp2AllowTwitterDialog: 1
  psp2Upgradable: 0
  psp2HealthWarning: 0
  psp2UseLibLocation: 0
  psp2InfoBarOnStartup: 0
  psp2InfoBarColor: 0
  psp2UseDebugIl2cppLibs: 0
  psmSplashimage: {fileID: 0}
  splashScreenBackgroundSourceLandscape: {fileID: 0}
  splashScreenBackgroundSourcePortrait: {fileID: 0}
  spritePackerPolicy: 
  webGLMemorySize: 256
  webGLExceptionSupport: 1
  webGLDataCaching: 0
  webGLDebugSymbols: 0
  webGLEmscriptenArgs: 
  webGLModulesDirectory: 
  webGLTemplate: APPLICATION:Default
  webGLAnalyzeBuildSize: 0
  webGLUseEmbeddedResources: 0
  webGLUseWasm: 0
  webGLCompressionFormat: 1
  scriptingDefineSymbols:
    1: CROSS_PLATFORM_INPUT
    2: 
    4: CROSS_PLATFORM_INPUT;MOBILE_INPUT
    7: CROSS_PLATFORM_INPUT;MOBILE_INPUT
    14: MOBILE_INPUT
    17: MOBILE_INPUT
    20: MOBILE_INPUT
    22: MOBILE_INPUT
  platformArchitecture: {}
  scriptingBackend: {}
  incrementalIl2cppBuild: {}
  additionalIl2CppArgs: 
  m_RenderingPath: 1
  m_MobileRenderingPath: 1
  metroPackageName: 
  metroPackageVersion: 
  metroCertificatePath: 
  metroCertificatePassword: 
  metroCertificateSubject: 
  metroCertificateIssuer: 
  metroCertificateNotAfter: 0000000000000000
  metroApplicationDescription: 
  wsaImages: {}
  metroTileShortName: 
  metroCommandLineArgsFile: 
  metroTileShowName: 0
  metroMediumTileShowName: 0
  metroLargeTileShowName: 0
  metroWideTileShowName: 0
  metroDefaultTileSize: 1
  metroTileForegroundText: 1
  metroTileBackgroundColor: {r: 0, g: 0, b: 0, a: 1}
  metroSplashScreenBackgroundColor: {r: 0, g: 0, b: 0, a: 1}
  metroSplashScreenUseBackgroundColor: 0
  platformCapabilities: {}
  metroFTAName: 
  metroFTAFileTypes: []
  metroProtocolName: 
  metroCompilationOverrides: 1
  tizenProductDescription: 
  tizenProductURL: 
  tizenSigningProfileName: 
  tizenGPSPermissions: 0
  tizenMicrophonePermissions: 0
  tizenDeploymentTarget: 
  tizenDeploymentTargetType: -1
  tizenMinOSVersion: 1
  n3dsUseExtSaveData: 0
  n3dsCompressStaticMem: 1
  n3dsExtSaveDataNumber: 0x12345
  n3dsStackSize: 131072
  n3dsTargetPlatform: 2
  n3dsRegion: 7
  n3dsMediaSize: 0
  n3dsLogoStyle: 3
  n3dsTitle: GameName
  n3dsProductCode: 
  n3dsApplicationId: 0xFF3FF
  stvDeviceAddress: 
  stvProductDescription: 
  stvProductAuthor: 
  stvProductAuthorEmail: 
  stvProductLink: 
  stvProductCategory: 0
  XboxOneProductId: 
  XboxOneUpdateKey: 
  XboxOneSandboxId: 
  XboxOneContentId: 
  XboxOneTitleId: 
  XboxOneSCId: 
  XboxOneGameOsOverridePath: 
  XboxOnePackagingOverridePath: 
  XboxOneAppManifestOverridePath: 
  XboxOnePackageEncryption: 0
  XboxOnePackageUpdateGranularity: 2
  XboxOneDescription: 
  XboxOneLanguage:
  - enus
  XboxOneCapability: []
  XboxOneGameRating: {}
  XboxOneIsContentPackage: 0
  XboxOneEnableGPUVariability: 0
  XboxOneSockets: {}
  XboxOneSplashScreen: {fileID: 0}
  XboxOneAllowedProductIds: []
  XboxOnePersistentLocalStorageSize: 0
  vrEditorSettings: {}
  cloudServicesEnabled: {}
  cloudProjectId: 
  projectName: 
  organizationId: 
  cloudEnabled: 0
